{
  "type": "service_account",
  "project_id": "avatech-messenger",
  "private_key_id": "6cb17be58e25763ffb36675d577085a57b9a1a74",
  "private_key": "-----BEGIN PRIVATE KEY-----\nMIIEvAIBADANBgkqhkiG9w0BAQEFAASCBKYwggSiAgEAAoIBAQCz6o1fqlEljnlV\n1zkhp0E3BltOaabIyKSUvcN8cepBNSTqUjn2lnCjAH/swUIO604RtsUKpKT+e3Jb\nuf0vnX49Voi9l4lEbeZqRIaOof0zAGh4hPuCkLfaZC/vVmSDhJ7OltA9rJfv0wlC\nHYFUXnOUcZ9+3X840kVyhHQJQK1RRm+8z2LoEeCS8yLL66N39QK+B0cfkgt4InlY\nH3l1IdjogrsuWCZoFGgLzkmtvuzil/3V7z4+i4IWGx53IJDuivphyg4Ui5AAaHBE\nc+o9PR5IOcKk2ge8HN8b1srNf5/4aD3kq+4BktVpop0bPDjgys+QKkx4oGX3V1Ki\nmRWWxaQlAgMBAAECggEADNixGoUXQTbAnCv/dNMz+WFXUKyDj6+f7Mz18eNSZjCM\nv7x6Tgyk40asW7Pa6yTLEMG7pQxniZI38qu/k9BLjMaqgdsZnoy4WJsm/nU7lpIv\nY3efW83Iiuv/bjf9elSUYEztdpHl0WaAsTtZGjSaTR2l1VGsfVqqQciKXoTDO1vN\nBIeRhigBYMRK2aGow1/ilf6IanQW201Jv4qTsAq6V1QgxJGO/xGAgy/kQ0itkcbr\n4JZs0zHNCYT8NkEhYs98zayqaYf7+YGLgrPBGYAWT/AK2q8D4SRW+yLkf3v2mdj6\n3+ZJoL3oBLSdiwrtlnH3zyV+FyWKjilxWw+/1vvWgQKBgQDabin2OnBRWtoecQ+x\nw4ShGMkn1JkF/RH3zS3N5F24IwQe0z7hvIGAzgOtWMPZMJVhG5tjQGQwSKRU6shL\ntJWeh7bVr2YpJuU5f4AqKAMEacxnwQbAZn/3dK1XumZa1ejwaVFqt5FKMdEYJdc+\nMK+jaL78P82xQ+g8js16bzfiZQKBgQDS3Iz3uvpYt2QRdhpCxz/+2g40Pwvg1UuW\nJi8Q4DRygAvNsMdlZ7zU4H6SM5zoSb1fWK/Ze1fN6iEMmwPLq91dGetjmkWfqcCm\nDn2mP1dFHPcCK7CQVPjHL5R5z227h8hE7UV6A8LA7xQcdcrrBXkQB0oz7lUrmEWs\nHDbkLNm+wQKBgHP5AbaGGJRZVG3NQbP0RzrxWfwX2JdhYmTbP3KNyWS20r07E6vu\n1iN5PmKPOozaSrWgXsQ3r/oi131umqH3Y2kkTWLvGaLHz/TTSU0YqWFyeuCrj9Yf\nldngzRhDE40u/dqHUH8Er9Ng18+mZ73RQ6/TMXPkvGVd1LQybc6PtnAxAoGAOEHJ\nhmqnUjYTh6kX1ossYsUwlvXfKGwfz35+fiUjOQ06mPU6La7grXb7rewBR+Qslxyl\nRgPnaDO3/5H4EEXZOHaq25cUTkXO9T7WfR1XHkRdDoIziD5zZUkndtxFrYvLfcBE\nEgqg0jK3DeTLb6q1Ivae8H380TW+GO4qIvRoX8ECgYB8+QE+LdOgCk+eZAUnIVBz\nsx3qWcxJ0smd66nvpEHTGpA7duPmZunIGnYfmllutBO5nlbIF69pnaVqisFkefgW\nVmCopK8Y3ey8pYscw7hBdxMyt528CkeulKZ0ityjkDAyB1M4rZFydRX69h3H5nbg\nF/Q1C7tNvFyFgYniVhm1Hg==\n-----END PRIVATE KEY-----\n",
  "client_email": "firebase-adminsdk-xkx83@avatech-messenger.iam.gserviceaccount.com",
  "client_id": "115482622091646896945",
  "auth_uri": "https://accounts.google.com/o/oauth2/auth",
  "token_uri": "https://oauth2.googleapis.com/token",
  "auth_provider_x509_cert_url": "https://www.googleapis.com/oauth2/v1/certs",
  "client_x509_cert_url": "https://www.googleapis.com/robot/v1/metadata/x509/firebase-adminsdk-xkx83%40avatech-messenger.iam.gserviceaccount.com"
}
