[colorlib.com/polygon/adminator/index.html]
[backblue.gif]
[fade.gif]
[index.html]
[colorlib.com/polygon/adminator/style.css]
[colorlib.com/polygon/adminator/assets/static/images/logo.png]
[colorlib.com/polygon/adminator/email.html]
[colorlib.com/polygon/adminator/compose.html]
[colorlib.com/polygon/adminator/calendar.html]
[colorlib.com/polygon/adminator/chat.html]
[colorlib.com/polygon/adminator/charts.html]
[colorlib.com/polygon/adminator/forms.html]
[colorlib.com/polygon/adminator/ui.html]
[colorlib.com/polygon/adminator/basic-table.html]
[colorlib.com/polygon/adminator/datatable.html]
[colorlib.com/polygon/adminator/google-maps.html]
[colorlib.com/polygon/adminator/vector-maps.html]
[colorlib.com/polygon/adminator/404.html]
[colorlib.com/polygon/adminator/500.html]
[colorlib.com/polygon/adminator/signin.html]
[colorlib.com/polygon/adminator/signup.html]
[colorlib.com/polygon/adminator/index.html]
[colorlib.com/polygon/adminator/style.css]
[colorlib.com/polygon/adminator/email.html]
[colorlib.com/polygon/adminator/compose.html]
[colorlib.com/polygon/adminator/calendar.html]
[colorlib.com/polygon/adminator/chat.html]
[colorlib.com/polygon/adminator/charts.html]
[colorlib.com/polygon/adminator/forms.html]
[colorlib.com/polygon/adminator/ui.html]
[colorlib.com/polygon/adminator/basic-table.html]
[colorlib.com/polygon/adminator/datatable.html]
[colorlib.com/polygon/adminator/google-maps.html]
[colorlib.com/polygon/adminator/vector-maps.html]
[colorlib.com/polygon/adminator/vendor.js]
[colorlib.com/polygon/adminator/bundle.js]
[colorlib.com/polygon/adminator/404.html]
[colorlib.com/polygon/adminator/assets/static/images/404.png]
[colorlib.com/polygon/adminator/assets/static/images/500.png]
[colorlib.com/polygon/adminator/500.html]
[colorlib.com/polygon/adminator/signin.html]
[colorlib.com/polygon/adminator/signup.html]
[colorlib.com/polygon/adminator/assets/static/images/bg.jpg]
